Copyright 1986-2018 Xilinx, Inc. All Rights Reserved.
------------------------------------------------------------------------------------------------------------------------
| Tool Version : Vivado v.2018.3 (lin64) Build 2405991 Thu Dec  6 23:36:41 MST 2018
| Date         : Mon May 20 18:39:02 2019
| Host         : Frank-GL502VML running 64-bit Ubuntu 18.04.2 LTS
| Command      : report_drc -file z80_tester_drc_routed.rpt -pb z80_tester_drc_routed.pb -rpx z80_tester_drc_routed.rpx
| Design       : z80_tester
| Device       : xc7a35tcpg236-1
| Speed File   : -1
| Design State : Fully Routed
------------------------------------------------------------------------------------------------------------------------

Report DRC

Table of Contents
-----------------
1. REPORT SUMMARY
2. REPORT DETAILS

1. REPORT SUMMARY
-----------------
            Netlist: netlist
          Floorplan: design_1
      Design limits: <entire design considered>
           Ruledeck: default
             Max violations: <unlimited>
             Violations found: 7
+----------+----------+----------------------------+------------+
| Rule     | Severity | Description                | Violations |
+----------+----------+----------------------------+------------+
| LUTLP-2  | Warning  | Combinatorial Loop Allowed | 1          |
| PDRC-153 | Warning  | Gated clock check          | 6          |
+----------+----------+----------------------------+------------+

2. REPORT DETAILS
-----------------
LUTLP-2#1 Warning
Combinatorial Loop Allowed  
206 LUT cells form a combinatorial loop. This can create a race condition. Timing analysis may not be accurate. The preferred resolution is to modify the design to remove combinatorial logic loops. This loop has been identified in the constraints as being known and understood by use of the ALLOW_COMBINATORIAL_LOOPS property on a net in the loop. The cells in the loop are: cpu/sequencer_/DFFE_inst_latch_cf_i_2, cpu/sequencer_/DFFE_inst_latch_cf_i_5, cpu/sequencer_/DFFE_inst_latch_cf_i_13, cpu/sequencer_/DFFE_inst_latch_cf_i_19, cpu/sequencer_/DFFE_inst_latch_hf_i_2, cpu/sequencer_/DFFE_inst_latch_hf_i_6, cpu/sequencer_/DFFE_inst_latch_hf_i_20, cpu/sequencer_/DFFE_inst_latch_pf_i_2, cpu/sequencer_/DFFE_inst_latch_pf_i_6, cpu/sequencer_/DFFE_inst_latch_pf_i_21, cpu/sequencer_/DFFE_inst_latch_pf_i_35, cpu/sequencer_/DFFE_inst_latch_sf_i_3, cpu/sequencer_/DFFE_inst_latch_sf_i_12, cpu/sequencer_/DFFE_inst_latch_sf_i_24, cpu/sequencer_/DFFE_inst_latch_sf_i_47 (the first 15 of 206 listed).
Related violations: <none>

PDRC-153#1 Warning
Gated clock check  
Net mem/player1Action_reg[1]/G0 is a gated clock net sourced by a combinational pin mem/player1Action_reg[1]/L3_2/O, cell mem/player1Action_reg[1]/L3_2 (in mem/player1Action_reg[1] macro). This is not good design practice and will likely impact performance. For SLICE registers, for example, use the CE pin to control the loading of data.
Related violations: <none>

PDRC-153#2 Warning
Gated clock check  
Net mem/player2Action_reg[1]/G0 is a gated clock net sourced by a combinational pin mem/player2Action_reg[1]/L3_2/O, cell mem/player2Action_reg[1]/L3_2 (in mem/player2Action_reg[1] macro). This is not good design practice and will likely impact performance. For SLICE registers, for example, use the CE pin to control the loading of data.
Related violations: <none>

PDRC-153#3 Warning
Gated clock check  
Net mem/uut/E[0] is a gated clock net sourced by a combinational pin mem/uut/player1Action_reg[1]_i_1/O, cell mem/uut/player1Action_reg[1]_i_1. This is not good design practice and will likely impact performance. For SLICE registers, for example, use the CE pin to control the loading of data.
Related violations: <none>

PDRC-153#4 Warning
Gated clock check  
Net mem/uut/keycode_reg[15]_0[0] is a gated clock net sourced by a combinational pin mem/uut/player2Action_reg[1]_i_1/O, cell mem/uut/player2Action_reg[1]_i_1. This is not good design practice and will likely impact performance. For SLICE registers, for example, use the CE pin to control the loading of data.
Related violations: <none>

PDRC-153#5 Warning
Gated clock check  
Net mem/vga_sync_unit/E[0] is a gated clock net sourced by a combinational pin mem/vga_sync_unit/wsStartX_reg[8]_i_2/O, cell mem/vga_sync_unit/wsStartX_reg[8]_i_2. This is not good design practice and will likely impact performance. For SLICE registers, for example, use the CE pin to control the loading of data.
Related violations: <none>

PDRC-153#6 Warning
Gated clock check  
Net mem/vga_sync_unit/stage_reg_0[0] is a gated clock net sourced by a combinational pin mem/vga_sync_unit/wsStartY_reg[8]_i_2/O, cell mem/vga_sync_unit/wsStartY_reg[8]_i_2. This is not good design practice and will likely impact performance. For SLICE registers, for example, use the CE pin to control the loading of data.
Related violations: <none>


